Project1_Group14
…
See <https://tidyselect.r-lib.org/reference/faq-external-vector.html>.

Warning: Using an external vector in selections was deprecated in tidyselect 1.1.0.
ℹ Please use `all_of()` or `any_of()` instead.
  # Was:
  data %>% select(geography)

  # Now:
  data %>% select(all_of(geography))

See <https://tidyselect.r-lib.org/reference/faq-external-vector.html>.

# A tibble: 109,230 × 8
   PWGTP  AGEP  GASP JWAP      JWDP      JWMNP SEX   state
   <dbl> <dbl> <dbl> <chr>     <chr>     <dbl> <fct> <chr>
 1    45    80     3 <NA>      <NA>          0 1     37   
 2     7    60     3 <NA>      <NA>          0 1     37   
 3    64    18     3 8:07 a.m. 8:02 a.m.     5 1     37   
 4    56    18     3 <NA>      <NA>          0 1     37   
 5    50    87     3 <NA>      <NA>          0 2     37   
 6    56    18     3 <NA>      <NA>          0 1     37   
 7    36    39     3 <NA>      <NA>          0 1     37   
 8    38    40     3 <NA>      <NA>          0 1     37   
 9    38    21     3 8:07 a.m. 8:02 a.m.     5 1     37   
10     8    19     3 <NA>      <NA>          0 2     37   
# ℹ 109,220 more rows
…
